{
    "locale": "zh-TW",
    "id": 3,
    "title": "我是測試消息\r\n我是測試消息",
    "published_on": "September 14th, 2018",
    "content": "\t\t\u003cp\u003eLorem ipsum dolor sit amet, consectetur adipiscing elit. Praesent ut velit in leo aliquet vulputate. Orci varius natoque penatibus et magnis dis parturient montes, nascetur ridiculus mus. Praesent pulvinar convallis nisi, vel laoreet augue luctus et. Suspendisse quis laoreet ligula. Vivamus libero dui, dapibus in aliquet in, elementum sed odio. Cras egestas volutpat justo sed volutpat. Pellentesque venenatis, nulla eu facilisis elementum, ex sem rutrum eros, at commodo lectus leo id nisi. Mauris at libero metus. Aenean et dui nec erat congue tincidunt vel a lacus. Nullam rhoncus lacus orci, vitae lobortis nibh consequat a. Morbi interdum tristique arcu, vel rhoncus nisl mollis eget.\u003c/p\u003e\n\t\t\u003cdiv class=\"img-wrapper\"\u003e\n\t\t\t\u003cimg onclick=\"openPhoto(\u0026#39;/rails/active_storage/blobs/eyJfcmFpbHMiOnsibWVzc2FnZSI6IkJBaHBBYTQ9IiwiZXhwIjpudWxsLCJwdXIiOiJibG9iX2lkIn19--84fde9a0681ca5a6cbe65a6c3dfac8267417f13a/test.gif?locale=zh-TW\u0026#39;)\" src=\"https://gamegirls.cc/rails/active_storage/blobs/eyJfcmFpbHMiOnsibWVzc2FnZSI6IkJBaHBBYTQ9IiwiZXhwIjpudWxsLCJwdXIiOiJibG9iX2lkIn19--84fde9a0681ca5a6cbe65a6c3dfac8267417f13a/test.gif?locale=zh-TW\" /\u003e\n\t\t\u003cimg class=\"play-icon\" src=\"assets/img/girl/player.svg\" /\u003e\n\t \t\u003c/div\u003e\n",
    "header": "img/girl/婠妍.jpg",
    "header_type": "video"
}