<?xml version="1.0" encoding="UTF-8"?>
<svg width="10px" height="15px" viewBox="0 0 10 15" version="1.1" xmlns="http://www.w3.org/2000/svg" xmlns:xlink="http://www.w3.org/1999/xlink">
    <!-- Generator: Sketch 51.2 (57519) - http://www.bohemiancoding.com/sketch -->
    <title>arrow</title>
    <desc>Created with Sketch.</desc>
    <defs>
        <linearGradient x1="49.9955678%" y1="2.04261121e-15%" x2="49.9955678%" y2="100%" id="linearGradient-1">
            <stop stop-color="#88500B" offset="0%"></stop>
            <stop stop-color="#FFDB5C" offset="100%"></stop>
        </linearGradient>
    </defs>
    <g id="認識女孩各別頁" stroke="none" stroke-width="1" fill="none" fill-rule="evenodd">
        <g id="2.留言欄_1440px" transform="translate(-497.000000, -717.000000)" fill="url(#linearGradient-1)" fill-rule="nonzero">
            <g id="VEDIO" transform="translate(89.000000, 505.000000)">
                <g id="arrow" transform="translate(408.000000, 212.000000)">
                    <path d="M10,7.50301846 C8.28046789,6.52262305 6.62280328,5.4429595 5.03590107,4.26982119 C3.26085821,2.95789484 1.57843468,1.53140779 0,0 L0,15 C2.99162737,12.0969524 6.35215529,9.57757085 10,7.50301846 Z" id="Shape"></path>
                </g>
            </g>
        </g>
    </g>
</svg>